wid,duration,SoilMoisture_T(%),SoilMoisture_M(%),SoilMoisture_D(%)
mc,199801,0.23,0.22,0.18
mc,199802,0.23,0.24,0.31
mc,199803,0.22,0.24,0.34
mc,199804,0.24,0.24,0.34
mc,199805,0.20,0.21,0.31
mc,199806,0.21,0.21,0.24
mc,199807,0.21,0.19,0.15
mc,199808,0.20,0.21,0.14
mc,199809,0.22,0.23,0.16
mc,199810,0.20,0.22,0.18
mc,199811,0.21,0.21,0.17
mc,199812,0.22,0.23,0.17
mc,199901,0.23,0.24,0.24
mc,199902,0.22,0.23,0.28
mc,199903,0.22,0.22,0.28
mc,199904,0.19,0.20,0.23
mc,199905,0.20,0.21,0.20
mc,199906,0.18,0.16,0.15
mc,199907,0.21,0.20,0.12
mc,199908,0.18,0.16,0.10
mc,199909,0.22,0.19,0.10
mc,199910,0.22,0.24,0.15
mc,199911,0.21,0.22,0.16
mc,199912,0.22,0.23,0.17
mc,200001,0.22,0.23,0.20
mc,200002,0.23,0.24,0.27
mc,200003,0.22,0.22,0.28
mc,200004,0.22,0.22,0.26
mc,200005,0.18,0.19,0.21
mc,200006,0.19,0.16,0.15
mc,200007,0.20,0.13,0.11
mc,200008,0.21,0.18,0.10
mc,200009,0.23,0.24,0.15
mc,200010,0.17,0.19,0.16
mc,200011,0.21,0.20,0.13
mc,200012,0.21,0.22,0.16
mc,200101,0.22,0.22,0.18
mc,200102,0.22,0.22,0.19
mc,200103,0.23,0.24,0.22
mc,200104,0.20,0.21,0.24
mc,200105,0.19,0.18,0.18
mc,200106,0.22,0.23,0.15
mc,200107,0.22,0.22,0.15
mc,200108,0.18,0.18,0.13
mc,200109,0.21,0.21,0.12
mc,200110,0.20,0.22,0.13
mc,200111,0.18,0.19,0.12
mc,200112,0.21,0.22,0.13
mc,200201,0.23,0.24,0.18
mc,200202,0.21,0.23,0.24
mc,200203,0.23,0.24,0.27
mc,200204,0.20,0.22,0.27
mc,200205,0.22,0.22,0.22
mc,200206,0.17,0.17,0.16
mc,200207,0.22,0.18,0.12
mc,200208,0.20,0.18,0.11
mc,200209,0.22,0.23,0.12
mc,200210,0.22,0.24,0.17
mc,200211,0.23,0.24,0.24
mc,200212,0.24,0.25,0.30
mc,200301,0.22,0.23,0.32
mc,200302,0.24,0.25,0.34
mc,200303,0.24,0.26,0.37
mc,200304,0.23,0.25,0.36
mc,200305,0.22,0.24,0.34
mc,200306,0.22,0.23,0.32
mc,200307,0.23,0.23,0.31
mc,200308,0.22,0.23,0.28
mc,200309,0.20,0.20,0.22
mc,200310,0.21,0.21,0.18
mc,200311,0.20,0.21,0.17
mc,200312,0.22,0.23,0.19
mc,200401,0.21,0.21,0.20
mc,200402,0.24,0.25,0.26
mc,200403,0.20,0.21,0.27
mc,200404,0.21,0.22,0.24
mc,200405,0.19,0.20,0.20
mc,200406,0.21,0.19,0.15
mc,200407,0.22,0.20,0.12
mc,200408,0.21,0.22,0.13
mc,200409,0.23,0.24,0.19
mc,200410,0.21,0.22,0.20
mc,200411,0.22,0.22,0.18
mc,200412,0.22,0.23,0.20
mc,200501,0.21,0.22,0.21
mc,200502,0.23,0.24,0.23
mc,200503,0.24,0.25,0.27
mc,200504,0.22,0.23,0.28
mc,200505,0.21,0.21,0.23
mc,200506,0.22,0.23,0.23
mc,200507,0.22,0.22,0.19
mc,200508,0.22,0.23,0.18
mc,200509,0.14,0.16,0.14
mc,200510,0.19,0.21,0.15
mc,200511,0.19,0.20,0.15
mc,200512,0.24,0.25,0.23
mc,200601,0.23,0.24,0.28
mc,200602,0.22,0.23,0.29
mc,200603,0.20,0.21,0.27
mc,200604,0.19,0.19,0.23
mc,200605,0.21,0.20,0.18
mc,200606,0.21,0.21,0.15
mc,200607,0.20,0.20,0.13
mc,200608,0.21,0.20,0.11
mc,200609,0.21,0.23,0.16
mc,200610,0.20,0.21,0.14
mc,200611,0.23,0.24,0.19
mc,200612,0.21,0.22,0.24
mc,200701,0.23,0.24,0.29
mc,200702,0.22,0.23,0.31
mc,200703,0.21,0.22,0.32
mc,200704,0.21,0.21,0.27
mc,200705,0.19,0.21,0.22
mc,200706,0.20,0.17,0.15
mc,200707,0.20,0.17,0.12
mc,200708,0.16,0.13,0.10
mc,200709,0.18,0.14,0.10
mc,200710,0.18,0.14,0.09
mc,200711,0.18,0.17,0.10
mc,200712,0.21,0.20,0.10
